{
  "current_page": 2,
  "total_pages": 2,
  "total_items": 49526,
  "photos":  [
     {
      "id": 142015777,
      "user_id": 288560,
      "name": "Custom 'AutoBot' completed a few months ago note wee headphones",
      "description": "via Instagram https://www.instagram.com/p/BCRCdyMhO3k/ | Handmade mixed media robot sculptures by HerArtSheLoves of Robots Are Awesome http://theawesomerobots.com",
      "camera": "",
      "lens": "",
      "focal_length": "",
      "iso": "",
      "shutter_speed": "",
      "aperture": "",
      "times_viewed": 0,
      "rating": 0,
      "status": 1,
      "created_at": "2016-02-26T17:28:08-05:00",
      "category": 0,
      "location": "",
      "latitude": null,
      "longitude": null,
      "taken_at": null,
      "hi_res_uploaded": 0,
      "for_sale": false,
      "width": 1080,
      "height": 1080,
      "votes_count": 0,
      "favorites_count": 0,
      "comments_count": 0,
      "nsfw": false,
      "sales_count": 0,
      "for_sale_date": null,
      "highest_rating": 0,
      "highest_rating_date": null,
      "license_type": 0,
      "converted": 27,
      "collections_count": 0,
      "crop_version": 3,
      "privacy": false,
      "profile": true,
      "image_url": "https://drscdn.500px.org/photo/142015777/m%3D256_k%3D1_a%3D1/3a0e6ee4ffe6023c24b065a0bd6aa3c1",
      "images":  [
         {
          "size": 30,
          "url": "https://drscdn.500px.org/photo/142015777/m%3D256_k%3D1_a%3D1/3a0e6ee4ffe6023c24b065a0bd6aa3c1",
          "https_url": "https://drscdn.500px.org/photo/142015777/m%3D256_k%3D1_a%3D1/3a0e6ee4ffe6023c24b065a0bd6aa3c1",
          "format": "jpeg"
        },
         {
          "size": 1080,
          "url": "https://drscdn.500px.org/photo/142015777/m%3D1080_k%3D1_a%3D1/04908312e3b7fe856aa695e224104b96",
          "https_url": "https://drscdn.500px.org/photo/142015777/m%3D1080_k%3D1_a%3D1/04908312e3b7fe856aa695e224104b96",
          "format": "jpeg"
        }
      ],
      "url": "/photo/142015777/custom-autobot-completed-a-few-months-ago-note-wee-headphones-by-herart-sheloves",
      "positive_votes_count": 0,
      "converted_bits": 27,
      "store_download": false,
      "store_print": false,
      "store_license": false,
      "request_to_buy_enabled": true,
      "license_requests_enabled": true,
      "watermark": false,
      "image_format": "jpeg",
      "user":  {
        "id": 288560,
        "username": "HerArtSheLoves",
        "firstname": "HerArt",
        "lastname": "SheLoves",
        "city": "",
        "country": "United States of America",
        "usertype": 0,
        "fullname": "HerArt SheLoves",
        "userpic_url": "https://pacdn.500px.org/288560/9abe4f122e1f2e424c3dea7b471291ba92c8571f/1.jpg?5",
        "userpic_https_url": "https://pacdn.500px.org/288560/9abe4f122e1f2e424c3dea7b471291ba92c8571f/1.jpg?5",
        "cover_url": null,
        "upgrade_status": 0,
        "store_on": true,
        "affection": 613,
        "avatars":  {
          "default":  {
            "https": "https://pacdn.500px.org/288560/9abe4f122e1f2e424c3dea7b471291ba92c8571f/1.jpg?5"
          },
          "large":  {
            "https": "https://pacdn.500px.org/288560/9abe4f122e1f2e424c3dea7b471291ba92c8571f/2.jpg?5"
          },
          "small":  {
            "https": "https://pacdn.500px.org/288560/9abe4f122e1f2e424c3dea7b471291ba92c8571f/3.jpg?5"
          },
          "tiny":  {
            "https": "https://pacdn.500px.org/288560/9abe4f122e1f2e424c3dea7b471291ba92c8571f/4.jpg?5"
          }
        },
        "followers_count": 0
      },
      "licensing_requested": false
    },
     {
      "id": 789,
      "user_id": 16212049,
      "name": "Fotos mit ღ -22-",
      "description": null,
      "camera": "NIKON D3100",
      "lens": null,
      "focal_length": "50",
      "iso": "160",
      "shutter_speed": "1/125",
      "aperture": "5.6",
      "times_viewed": 6,
      "rating": 40.7,
      "status": 1,
      "created_at": "2016-02-26T17:26:29-05:00",
      "category": 18,
      "location": null,
      "latitude": null,
      "longitude": null,
      "taken_at": "2015-06-08T16:46:19-04:00",
      "hi_res_uploaded": 0,
      "for_sale": false,
      "width": 1067,
      "height": 641,
      "votes_count": 2,
      "favorites_count": 0,
      "comments_count": 0,
      "nsfw": false,
      "sales_count": 0,
      "for_sale_date": null,
      "highest_rating": 40.7,
      "highest_rating_date": "2016-02-26T17:27:20-05:00",
      "license_type": 0,
      "converted": 27,
      "collections_count": 0,
      "crop_version": 3,
      "privacy": false,
      "profile": true,
      "image_url": "https://drscdn.500px.org/photo/142015649/m%3D256_k%3D1_a%3D1/f086302e3c1cf7714e9c191aa14b142c",
      "images":  [
         {
          "size": 30,
          "url": "https://drscdn.500px.org/photo/142015649/m%3D256_k%3D1_a%3D1/f086302e3c1cf7714e9c191aa14b142c",
          "https_url": "https://drscdn.500px.org/photo/142015649/m%3D256_k%3D1_a%3D1/f086302e3c1cf7714e9c191aa14b142c",
          "format": "jpeg"
        },
         {
          "size": 1080,
          "url": "https://drscdn.500px.org/photo/142015649/m%3D1080_k%3D1_a%3D1/837bf92ba77779efd3930a3bf6c3e904",
          "https_url": "https://drscdn.500px.org/photo/142015649/m%3D1080_k%3D1_a%3D1/837bf92ba77779efd3930a3bf6c3e904",
          "format": "jpeg"
        }
      ],
      "url": "/photo/142015649/fotos-mit-%E1%83%A6-22-by-manuela-henriette-jennewein-beilharz",
      "positive_votes_count": 2,
      "converted_bits": 27,
      "store_download": false,
      "store_print": false,
      "store_license": false,
      "request_to_buy_enabled": true,
      "license_requests_enabled": false,
      "watermark": true,
      "image_format": "jpeg",
      "user":  {
        "id": 16212049,
        "username": "esmanou",
        "firstname": "Manuela Henriette",
        "lastname": "Jennewein-Beilharz",
        "city": "Rheinhessen",
        "country": "Deutschland",
        "usertype": 0,
        "fullname": "Manuela Henriette Jennewein-Beilharz",
        "userpic_url": "https://pacdn.500px.org/16212049/8e8d238df6a15733d3e6607d6267b6915248dd0a/1.jpg?3",
        "userpic_https_url": "https://pacdn.500px.org/16212049/8e8d238df6a15733d3e6607d6267b6915248dd0a/1.jpg?3",
        "cover_url": null,
        "upgrade_status": 2,
        "store_on": false,
        "affection": 167,
        "avatars":  {
          "default":  {
            "https": "https://pacdn.500px.org/16212049/8e8d238df6a15733d3e6607d6267b6915248dd0a/1.jpg?3"
          },
          "large":  {
            "https": "https://pacdn.500px.org/16212049/8e8d238df6a15733d3e6607d6267b6915248dd0a/2.jpg?3"
          },
          "small":  {
            "https": "https://pacdn.500px.org/16212049/8e8d238df6a15733d3e6607d6267b6915248dd0a/3.jpg?3"
          },
          "tiny":  {
            "https": "https://pacdn.500px.org/16212049/8e8d238df6a15733d3e6607d6267b6915248dd0a/4.jpg?3"
          }
        },
        "followers_count": 0
      },
      "licensing_requested": false
    },
     {
      "id": 142015641,
      "user_id": 893572,
      "name": "Untitled",
      "description": "",
      "camera": "Canon EOS rebel T2i",
      "lens": null,
      "focal_length": "50",
      "iso": "100",
      "shutter_speed": "1/160",
      "aperture": "4.0",
      "times_viewed": 2,
      "rating": 32,
      "status": 1,
      "created_at": "2016-02-26T17:26:24-05:00",
      "category": 18,
      "location": null,
      "latitude": null,
      "longitude": null,
      "taken_at": "2016-02-25T17:56:53-05:00",
      "hi_res_uploaded": 0,
      "for_sale": false,
      "width": 2500,
      "height": 1458,
      "votes_count": 1,
      "favorites_count": 0,
      "comments_count": 0,
      "nsfw": false,
      "sales_count": 0,
      "for_sale_date": null,
      "highest_rating": 32,
      "highest_rating_date": "2016-02-26T17:27:39-05:00",
      "license_type": 0,
      "converted": 27,
      "collections_count": 0,
      "crop_version": 3,
      "privacy": false,
      "profile": true,
      "image_url": "https://drscdn.500px.org/photo/142015641/m%3D256_k%3D1_a%3D1/09cbfee3a3b47376c7139ce2f49e8282",
      "images":  [
         {
          "size": 30,
          "url": "https://drscdn.500px.org/photo/142015641/m%3D256_k%3D1_a%3D1/09cbfee3a3b47376c7139ce2f49e8282",
          "https_url": "https://drscdn.500px.org/photo/142015641/m%3D256_k%3D1_a%3D1/09cbfee3a3b47376c7139ce2f49e8282",
          "format": "jpeg"
        },
         {
          "size": 1080,
          "url": "https://drscdn.500px.org/photo/142015641/m%3D1080_k%3D1_a%3D1/51b161f8129c576d07ac914935cff0c8",
          "https_url": "https://drscdn.500px.org/photo/142015641/m%3D1080_k%3D1_a%3D1/51b161f8129c576d07ac914935cff0c8",
          "format": "jpeg"
        }
      ],
      "url": "/photo/142015641/untitled-by-joqui-mercado",
      "positive_votes_count": 1,
      "converted_bits": 27,
      "store_download": false,
      "store_print": false,
      "store_license": false,
      "request_to_buy_enabled": true,
      "license_requests_enabled": true,
      "watermark": false,
      "image_format": "jpeg",
      "user":  {
        "id": 893572,
        "username": "joqui",
        "firstname": "Joqui",
        "lastname": "Mercado",
        "city": "",
        "country": "Puerto RIco",
        "usertype": 0,
        "fullname": "Joqui Mercado",
        "userpic_url": "https://pacdn.500px.org/893572/5824af35e50e61ba3d616e461f8d350431969406/1.jpg?16",
        "userpic_https_url": "https://pacdn.500px.org/893572/5824af35e50e61ba3d616e461f8d350431969406/1.jpg?16",
        "cover_url": "https://pacdn.500px.org/893572/5824af35e50e61ba3d616e461f8d350431969406/cover_2048.jpg?13",
        "upgrade_status": 0,
        "store_on": true,
        "affection": 25510,
        "avatars":  {
          "default":  {
            "https": "https://pacdn.500px.org/893572/5824af35e50e61ba3d616e461f8d350431969406/1.jpg?16"
          },
          "large":  {
            "https": "https://pacdn.500px.org/893572/5824af35e50e61ba3d616e461f8d350431969406/2.jpg?16"
          },
          "small":  {
            "https": "https://pacdn.500px.org/893572/5824af35e50e61ba3d616e461f8d350431969406/3.jpg?16"
          },
          "tiny":  {
            "https": "https://pacdn.500px.org/893572/5824af35e50e61ba3d616e461f8d350431969406/4.jpg?16"
          }
        },
        "followers_count": 0
      },
      "licensing_requested": false
    }
  ],
  "filters":  {
    "category": false,
    "exclude": false
  },
  "feature": "fresh_today"
}
